Null Hypothesis Significance Testing Via Permutation Tests – 2025 UseR Lightening Talk
…
We recalculate the mean difference between conditions.

Repeating this many times gives us a null distribution: the differences we’d expect purely by chance if the null hypothesis were true. Finally, we compare our observed difference to this null distribution. If it falls far into the tails—much larger or smaller than what we’d expect by chance—it suggests the difference is unlikely to be random and may reflect a genuine effect.

To see an example, let’s perform one shuffle.

# shuffle data
shuffled_groups <- 
  df |> 
  mutate(shuffled_group = sample(graph_type))

shuffled_groups

# A tibble: 910 × 3
   graph_type wtp_final shuffled_group
   <fct>          <dbl> <fct>         
 1 HOPS              50 CI rescaled   
 2 HOPS              25 HOPS          
 3 PI                50 CI rescaled   
 4 CI                50 CI rescaled   
 5 CI                50 PI            
 6 HOPS              50 CI            
 7 HOPS             150 PI            
 8 CI                11 HOPS          
 9 CI                50 CI rescaled   
10 HOPS              20 CI            
# ℹ 900 more rows
…
my_groups

# A tibble: 470 × 3
   wtp_final group groupB
       <dbl> <fct>  <dbl>
 1        50 B          1
 2        25 B          1
 3        50 A          0
 4        50 B          1
 5       150 B          1
 6        20 B          1
 7        85 B          1
 8       100 B          1
 9        60 A          0
10        20 A          0
# ℹ 460 more rows
…
